Project("{FAE04EC0-301F-11D3-BF4B-00C04F79EFBC}") = "InteractiveCall.CSharp", "InteractiveCall.CSharp.csproj", "{AC47016F-FBCF-E61F-FC58-B847495979D6}"
EndProject
Project("{FAE04EC0-301F-11D3-BF4B-00C04F79EFBC}") = "InteractiveCall.CSharp.Editor", "InteractiveCall.CSharp.Editor.csproj", "{05E64559-AD45-93DA-D1A9-90CC39F451AB}"
EndProject